<?xml version="1.0" encoding="UTF-8"?>
<svg version="1.1" viewBox="0 0 16 16" xmlns="http://www.w3.org/2000/svg">
 <g transform="translate(0 -292.77)">
  <path transform="translate(0 292.77)" d="m0 0v2h1v14h2v-14h1v-2zm7.0527 2c-1.9469 0-3.0527 1-3.0527 1v8s1.0158-1 3.0078-1 3.9922 1 5.9922 1 3-1 3-1v-8s-1 1-3 1-4.0004-1-5.9473-1z" fill="#1a1a1a" style="paint-order:normal"/>
 </g>
</svg>
