<?xml version="1.0" encoding="UTF-8"?>
<svg version="1.1" viewBox="0 0 16 16" xmlns="http://www.w3.org/2000/svg">
 <path d="m0 3v9h1.2715a2 2 0 0 1 1.7285 -1 2 2 0 0 1 1.7305 1h6.541a2 2 0 0 1 1.7285 -1 2 2 0 0 1 1.7305 1h1.2695v-3l-2-4h-3v-2h-11zm11 3h2l1 2h-3v-2zm-8 6a1 1 0 0 0 -1 1 1 1 0 0 0 1 1 1 1 0 0 0 1 -1 1 1 0 0 0 -1 -1zm10 0a1 1 0 0 0 -1 1 1 1 0 0 0 1 1 1 1 0 0 0 1 -1 1 1 0 0 0 -1 -1z" fill-rule="evenodd"/>
</svg>
